…
``` r
# Buzzfeed highlighted that many of the U.S.-based Nobel laureates in the sciences were born outside the U.S. based on this visualization, a large portion of laureates residing in the U.S. were born outside the U.S. 
```

### Exercise 6

``` r
#within the four categories 
nobel_living_science %>%
  filter(country_us == "USA" & born_country_us == "other") %>%
  count(born_country) %>%
  arrange(desc(n))  # Sort by descending count
```

    ## # A tibble: 21 × 2
    ##    born_country       n
    ##    <chr>          <int>
    ##  1 Germany            7
    ##  2 United Kingdom     7
    ##  3 China              5
    ##  4 Canada             4
    ##  5 Japan              3
    ##  6 Australia          2
    ##  7 Israel             2
    ##  8 Norway             2
    ##  9 Austria            1
    ## 10 Finland            1
    ## # ℹ 11 more rows
…
